{
  "$schema": "https://json.schemastore.org/nest-cli",
  "collection": "@nestjs/schematics",
  "sourceRoot": "src",
  "compilerOptions": {
    "assets": [
      "**/*.hbs",
      "**/*.proto",
      "./config/*.yaml",
      { "include": "./config/*.yaml", "outDir": "./dist" }
    ]
  },
  "watchAssets": true
}
